<?xml version="1.0" encoding="utf-8"?>
<!-- Generator: Adobe Illustrator 19.2.0, SVG Export Plug-In . SVG Version: 6.00 Build 0)  -->
<svg version="1.1" id="Layer_1" xmlns="http://www.w3.org/2000/svg" xmlns:xlink="http://www.w3.org/1999/xlink" x="0px" y="0px"
	 viewBox="0 0 68 75" style="enable-background:new 0 0 68 75;" xml:space="preserve">
<style type="text/css">
	.st0{fill:#5CDB95;}
	.st1{fill:#00376E;}
</style>
<rect y="0" class="st0" width="300" height="75"/>
<g>
	<path class="st1" d="M148,25.2h-3.8l0.1,24.6h3.6c4.5,0,5.4-3.4,5.4-12.3C153.2,31,153.2,25.2,148,25.2z"/>
	<path class="st1" d="M0,0v75h300V0H0z M35.1,56.1c-12.5,0-13.9-5.1-14-18.6c0-8.9,0.4-18,12.5-18.1c7.3,0,11.8,4,11.4,11.5h-7.4
		c0-3.3-0.5-6.2-4.4-6.2c-4.6,0-4.6,6.3-4.6,13.1C28.6,49,29.7,51,34,51c1.2,0,2.6-0.3,3.7-0.7v-7.9h-4v-5.5h11.4v18
		C43.1,55.3,38,56.1,35.1,56.1z M87.8,56c-8.2,0-12.1-4.2-12.1-10.9L75.6,20H83l0.1,24.7c0,4.4,1.9,6.1,4.6,6.1
		c3.2,0,4.7-2.2,4.7-6.1L92.3,20h7.4l0.1,25.2C99.9,50.4,96.9,56,87.8,56z M121.7,55.3L112,29.4h-0.1l0.1,25.9h-6.9L105,19.8h10
		l9.5,24.5h0.1l-0.1-24.6h6.9l0.1,35.5L121.7,55.3z M149,55.2h-12.1l-0.1-35.5h12.4c9.7,0,11.6,6.5,11.6,17.5
		C160.8,42.7,161.6,55.2,149,55.2z M177.7,55.2h-7.4l-0.1-29.6h-8.3v-5.9l23.9-0.1v5.9h-8.3L177.7,55.2z M204.4,55.1h-8.7l-8.8-35.5
		h7.7l5.6,25.8h0.1l6.1-25.8h7.3L204.4,55.1z M217.2,55.1l-0.1-35.5h7.4l0.1,35.5H217.2z M242.4,55.6c-12.5,0-13.9-5.1-14-18.6
		c0-8.9,0.4-18,12.5-18.1c7.3,0,11.8,4,11.4,11.5h-7.4c0-3.3-0.5-6.2-4.4-6.2c-4.6,0-4.6,6.3-4.6,13.1c0,11.1,1.1,13.1,5.3,13.1
		c1.2,0,2.6-0.3,3.7-0.7v-7.9h-4v-5.5h11.4v18C250.4,54.8,245.4,55.6,242.4,55.6z M266.5,55.5c-9.2,0-10.9-5.4-10.5-11.5h7.4
		c0,3.4,0.2,6.2,4.2,6.2c2.5,0,3.7-1.6,3.7-4c0-6.4-15-6.7-15-17.3c0-5.6,2.6-10,11.7-10c7.2,0,10.8,3.2,10.3,10.6h-7.2
		c0-2.7-0.5-5.4-3.5-5.3c-2.4,0-3.8,1.3-3.8,3.8c0,6.7,15,6.1,15,17.3C278.9,54.4,272.2,55.5,266.5,55.5z"/>
</g>
</svg>
